<?xml version="1.0" encoding="UTF-8" standalone="no"?>
<!-- Created with Inkscape (http://www.inkscape.org/) -->

<svg
   xmlns:dc="http://purl.org/dc/elements/1.1/"
   xmlns:cc="http://creativecommons.org/ns#"
   xmlns:rdf="http://www.w3.org/1999/02/22-rdf-syntax-ns#"
   xmlns:svg="http://www.w3.org/2000/svg"
   xmlns="http://www.w3.org/2000/svg"
   xmlns:sodipodi="http://sodipodi.sourceforge.net/DTD/sodipodi-0.dtd"
   xmlns:inkscape="http://www.inkscape.org/namespaces/inkscape"
   width="297mm"
   height="420mm"
   viewBox="0 0 297 420"
   version="1.1"
   id="svg8"
   inkscape:version="0.92.1 r15371"
   sodipodi:docname="SPI-write.svg"
   inkscape:export-filename="C:\Users\user\Documents\misc\zcode\docs\SPI-read.png"
   inkscape:export-xdpi="96"
   inkscape:export-ydpi="96">
  <defs
     id="defs2">
    <marker
       inkscape:stockid="Arrow1Lend"
       orient="auto"
       refY="0.0"
       refX="0.0"
       id="marker5088"
       style="overflow:visible;"
       inkscape:isstock="true">
      <path
         id="path5086"
         d="M 0.0,0.0 L 5.0,-5.0 L -12.5,0.0 L 5.0,5.0 L 0.0,0.0 z "
         style="fill-rule:evenodd;stroke:#000000;stroke-width:1pt;stroke-opacity:1;fill:#000000;fill-opacity:1"
         transform="scale(0.8) rotate(180) translate(12.5,0)" />
    </marker>
    <marker
       inkscape:isstock="true"
       style="overflow:visible;"
       id="marker5082"
       refX="0.0"
       refY="0.0"
       orient="auto"
       inkscape:stockid="Arrow1Lend">
      <path
         transform="scale(0.8) rotate(180) translate(12.5,0)"
         style="fill-rule:evenodd;stroke:#000000;stroke-width:1pt;stroke-opacity:1;fill:#000000;fill-opacity:1"
         d="M 0.0,0.0 L 5.0,-5.0 L -12.5,0.0 L 5.0,5.0 L 0.0,0.0 z "
         id="path5080" />
    </marker>
    <marker
       inkscape:stockid="Arrow1Lend"
       orient="auto"
       refY="0.0"
       refX="0.0"
       id="marker5078"
       style="overflow:visible;"
       inkscape:isstock="true"
       inkscape:collect="always">
      <path
         id="path5076"
         d="M 0.0,0.0 L 5.0,-5.0 L -12.5,0.0 L 5.0,5.0 L 0.0,0.0 z "
         style="fill-rule:evenodd;stroke:#000000;stroke-width:1pt;stroke-opacity:1;fill:#000000;fill-opacity:1"
         transform="scale(0.8) rotate(180) translate(12.5,0)" />
    </marker>
    <marker
       inkscape:stockid="Arrow1Lend"
       orient="auto"
       refY="0.0"
       refX="0.0"
       id="marker5070"
       style="overflow:visible;"
       inkscape:isstock="true">
      <path
         id="path5068"
         d="M 0.0,0.0 L 5.0,-5.0 L -12.5,0.0 L 5.0,5.0 L 0.0,0.0 z "
         style="fill-rule:evenodd;stroke:#000000;stroke-width:1pt;stroke-opacity:1;fill:#000000;fill-opacity:1"
         transform="scale(0.8) rotate(180) translate(12.5,0)" />
    </marker>
    <marker
       inkscape:stockid="Arrow1Lend"
       orient="auto"
       refY="0.0"
       refX="0.0"
       id="marker5064"
       style="overflow:visible;"
       inkscape:isstock="true">
      <path
         id="path5062"
         d="M 0.0,0.0 L 5.0,-5.0 L -12.5,0.0 L 5.0,5.0 L 0.0,0.0 z "
         style="fill-rule:evenodd;stroke:#000000;stroke-width:1pt;stroke-opacity:1;fill:#000000;fill-opacity:1"
         transform="scale(0.8) rotate(180) translate(12.5,0)" />
    </marker>
    <marker
       inkscape:stockid="Arrow1Lend"
       orient="auto"
       refY="0.0"
       refX="0.0"
       id="marker5054"
       style="overflow:visible;"
       inkscape:isstock="true">
      <path
         id="path5052"
         d="M 0.0,0.0 L 5.0,-5.0 L -12.5,0.0 L 5.0,5.0 L 0.0,0.0 z "
         style="fill-rule:evenodd;stroke:#00ff00;stroke-width:1pt;stroke-opacity:1;fill:#00ff00;fill-opacity:1"
         transform="scale(0.8) rotate(180) translate(12.5,0)" />
    </marker>
    <marker
       inkscape:isstock="true"
       style="overflow:visible;"
       id="marker5046"
       refX="0.0"
       refY="0.0"
       orient="auto"
       inkscape:stockid="Arrow1Lend">
      <path
         transform="scale(0.8) rotate(180) translate(12.5,0)"
         style="fill-rule:evenodd;stroke:#fa0000;stroke-width:1pt;stroke-opacity:1;fill:#fa0000;fill-opacity:1"
         d="M 0.0,0.0 L 5.0,-5.0 L -12.5,0.0 L 5.0,5.0 L 0.0,0.0 z "
         id="path5044" />
    </marker>
    <marker
       inkscape:stockid="Arrow1Lend"
       orient="auto"
       refY="0.0"
       refX="0.0"
       id="Arrow1Lend"
       style="overflow:visible;"
       inkscape:isstock="true"
       inkscape:collect="always">
      <path
         id="path5040"
         d="M 0.0,0.0 L 5.0,-5.0 L -12.5,0.0 L 5.0,5.0 L 0.0,0.0 z "
         style="fill-rule:evenodd;stroke:#fa0000;stroke-width:1pt;stroke-opacity:1;fill:#fa0000;fill-opacity:1"
         transform="scale(0.8) rotate(180) translate(12.5,0)" />
    </marker>
    <marker
       inkscape:isstock="true"
       style="overflow:visible;"
       id="marker4989"
       refX="0.0"
       refY="0.0"
       orient="auto"
       inkscape:stockid="Arrow1Lend">
      <path
         transform="scale(0.8) rotate(180) translate(12.5,0)"
         style="fill-rule:evenodd;stroke:#ff0000;stroke-width:1pt;stroke-opacity:1;fill:#ff0000;fill-opacity:1"
         d="M 0.0,0.0 L 5.0,-5.0 L -12.5,0.0 L 5.0,5.0 L 0.0,0.0 z "
         id="path4987" />
    </marker>
    <marker
       inkscape:isstock="true"
       style="overflow:visible;"
       id="marker4985"
       refX="0.0"
       refY="0.0"
       orient="auto"
       inkscape:stockid="Arrow1Lend">
      <path
         transform="scale(0.8) rotate(180) translate(12.5,0)"
         style="fill-rule:evenodd;stroke:#ff0000;stroke-width:1pt;stroke-opacity:1;fill:#ff0000;fill-opacity:1"
         d="M 0.0,0.0 L 5.0,-5.0 L -12.5,0.0 L 5.0,5.0 L 0.0,0.0 z "
         id="path4983" />
    </marker>
    <marker
       inkscape:stockid="Arrow1Lend"
       orient="auto"
       refY="0.0"
       refX="0.0"
       id="marker4981"
       style="overflow:visible;"
       inkscape:isstock="true"
       inkscape:collect="always">
      <path
         id="path4721"
         d="M 0.0,0.0 L 5.0,-5.0 L -12.5,0.0 L 5.0,5.0 L 0.0,0.0 z "
         style="fill-rule:evenodd;stroke:#ff0000;stroke-width:1pt;stroke-opacity:1;fill:#ff0000;fill-opacity:1"
         transform="scale(0.8) rotate(180) translate(12.5,0)" />
    </marker>
    <marker
       inkscape:stockid="Arrow1Lend"
       orient="auto"
       refY="0"
       refX="0"
       id="marker6645"
       style="overflow:visible"
       inkscape:isstock="true">
      <path
         id="path6643"
         d="M 0,0 5,-5 -12.5,0 5,5 Z"
         style="fill:#00fa00;fill-opacity:1;fill-rule:evenodd;stroke:#00fa00;stroke-width:1.00000003pt;stroke-opacity:1"
         transform="matrix(-0.8,0,0,-0.8,-10,0)"
         inkscape:connector-curvature="0" />
    </marker>
    <marker
       inkscape:stockid="Arrow1Lend"
       orient="auto"
       refY="0"
       refX="0"
       id="marker6299"
       style="overflow:visible"
       inkscape:isstock="true">
      <path
         id="path6297"
         d="M 0,0 5,-5 -12.5,0 5,5 Z"
         style="fill:#000000;fill-opacity:1;fill-rule:evenodd;stroke:#000000;stroke-width:1.00000003pt;stroke-opacity:1"
         transform="matrix(-0.8,0,0,-0.8,-10,0)"
         inkscape:connector-curvature="0" />
    </marker>
    <marker
       inkscape:isstock="true"
       style="overflow:visible"
       id="marker6133"
       refX="0"
       refY="0"
       orient="auto"
       inkscape:stockid="Arrow1Lend">
      <path
         transform="matrix(-0.8,0,0,-0.8,-10,0)"
         style="fill:#000000;fill-opacity:1;fill-rule:evenodd;stroke:#000000;stroke-width:1.00000003pt;stroke-opacity:1"
         d="M 0,0 5,-5 -12.5,0 5,5 Z"
         id="path6131"
         inkscape:connector-curvature="0" />
    </marker>
    <marker
       inkscape:stockid="Arrow1Lend"
       orient="auto"
       refY="0"
       refX="0"
       id="marker5897"
       style="overflow:visible"
       inkscape:isstock="true">
      <path
         id="path5895"
         d="M 0,0 5,-5 -12.5,0 5,5 Z"
         style="fill:#000000;fill-opacity:1;fill-rule:evenodd;stroke:#000000;stroke-width:1.00000003pt;stroke-opacity:1"
         transform="matrix(-0.8,0,0,-0.8,-10,0)"
         inkscape:connector-curvature="0" />
    </marker>
    <marker
       inkscape:isstock="true"
       style="overflow:visible"
       id="marker5783"
       refX="0"
       refY="0"
       orient="auto"
       inkscape:stockid="Arrow1Lend"
       inkscape:collect="always">
      <path
         transform="matrix(-0.8,0,0,-0.8,-10,0)"
         style="fill:#000000;fill-opacity:1;fill-rule:evenodd;stroke:#000000;stroke-width:1.00000003pt;stroke-opacity:1"
         d="M 0,0 5,-5 -12.5,0 5,5 Z"
         id="path5781"
         inkscape:connector-curvature="0" />
    </marker>
    <marker
       inkscape:isstock="true"
       style="overflow:visible"
       id="marker5681"
       refX="0"
       refY="0"
       orient="auto"
       inkscape:stockid="Arrow1Lend">
      <path
         transform="matrix(-0.8,0,0,-0.8,-10,0)"
         style="fill:#000000;fill-opacity:1;fill-rule:evenodd;stroke:#000000;stroke-width:1.00000003pt;stroke-opacity:1"
         d="M 0,0 5,-5 -12.5,0 5,5 Z"
         id="path5679"
         inkscape:connector-curvature="0" />
    </marker>
    <marker
       inkscape:stockid="Arrow1Lend"
       orient="auto"
       refY="0"
       refX="0"
       id="marker5495"
       style="overflow:visible"
       inkscape:isstock="true">
      <path
         id="path5493"
         d="M 0,0 5,-5 -12.5,0 5,5 Z"
         style="fill:#fc0000;fill-opacity:1;fill-rule:evenodd;stroke:#fc0000;stroke-width:1.00000003pt;stroke-opacity:1"
         transform="matrix(-0.8,0,0,-0.8,-10,0)"
         inkscape:connector-curvature="0" />
    </marker>
    <marker
       inkscape:isstock="true"
       style="overflow:visible"
       id="marker5411"
       refX="0"
       refY="0"
       orient="auto"
       inkscape:stockid="Arrow1Lend"
       inkscape:collect="always">
      <path
         transform="matrix(-0.8,0,0,-0.8,-10,0)"
         style="fill:#fc0000;fill-opacity:1;fill-rule:evenodd;stroke:#fc0000;stroke-width:1.00000003pt;stroke-opacity:1"
         d="M 0,0 5,-5 -12.5,0 5,5 Z"
         id="path5409"
         inkscape:connector-curvature="0" />
    </marker>
    <marker
       inkscape:stockid="Arrow1Lend"
       orient="auto"
       refY="0"
       refX="0"
       id="marker5261"
       style="overflow:visible"
       inkscape:isstock="true"
       inkscape:collect="always">
      <path
         id="path5259"
         d="M 0,0 5,-5 -12.5,0 5,5 Z"
         style="fill:#fc0000;fill-opacity:1;fill-rule:evenodd;stroke:#fc0000;stroke-width:1.00000003pt;stroke-opacity:1"
         transform="matrix(-0.8,0,0,-0.8,-10,0)"
         inkscape:connector-curvature="0" />
    </marker>
    <marker
       inkscape:stockid="Arrow1Lend"
       orient="auto"
       refY="0"
       refX="0"
       id="marker5195"
       style="overflow:visible"
       inkscape:isstock="true"
       inkscape:collect="always">
      <path
         id="path5193"
         d="M 0,0 5,-5 -12.5,0 5,5 Z"
         style="fill:#fc0000;fill-opacity:1;fill-rule:evenodd;stroke:#fc0000;stroke-width:1.00000003pt;stroke-opacity:1"
         transform="matrix(-0.8,0,0,-0.8,-10,0)"
         inkscape:connector-curvature="0" />
    </marker>
    <marker
       inkscape:isstock="true"
       style="overflow:visible"
       id="marker5141"
       refX="0"
       refY="0"
       orient="auto"
       inkscape:stockid="Arrow1Lend"
       inkscape:collect="always">
      <path
         transform="matrix(-0.8,0,0,-0.8,-10,0)"
         style="fill:#fc0000;fill-opacity:1;fill-rule:evenodd;stroke:#fc0000;stroke-width:1.00000003pt;stroke-opacity:1"
         d="M 0,0 5,-5 -12.5,0 5,5 Z"
         id="path5139"
         inkscape:connector-curvature="0" />
    </marker>
    <marker
       inkscape:stockid="Arrow1Lend"
       orient="auto"
       refY="0"
       refX="0"
       id="marker5087"
       style="overflow:visible"
       inkscape:isstock="true"
       inkscape:collect="always">
      <path
         id="path5085"
         d="M 0,0 5,-5 -12.5,0 5,5 Z"
         style="fill:#fc0000;fill-opacity:1;fill-rule:evenodd;stroke:#fc0000;stroke-width:1.00000003pt;stroke-opacity:1"
         transform="matrix(-0.8,0,0,-0.8,-10,0)"
         inkscape:connector-curvature="0" />
    </marker>
    <marker
       inkscape:isstock="true"
       style="overflow:visible"
       id="marker5045"
       refX="0"
       refY="0"
       orient="auto"
       inkscape:stockid="Arrow1Lend">
      <path
         transform="matrix(-0.8,0,0,-0.8,-10,0)"
         style="fill:#fc0000;fill-opacity:1;fill-rule:evenodd;stroke:#fc0000;stroke-width:1.00000003pt;stroke-opacity:1"
         d="M 0,0 5,-5 -12.5,0 5,5 Z"
         id="path5043"
         inkscape:connector-curvature="0" />
    </marker>
    <marker
       inkscape:stockid="Arrow1Lend"
       orient="auto"
       refY="0"
       refX="0"
       id="marker5003"
       style="overflow:visible"
       inkscape:isstock="true"
       inkscape:collect="always">
      <path
         id="path5001"
         d="M 0,0 5,-5 -12.5,0 5,5 Z"
         style="fill:#fc0000;fill-opacity:1;fill-rule:evenodd;stroke:#fc0000;stroke-width:1.00000003pt;stroke-opacity:1"
         transform="matrix(-0.8,0,0,-0.8,-10,0)"
         inkscape:connector-curvature="0" />
    </marker>
    <inkscape:path-effect
       effect="powerstroke"
       id="path-effect4671"
       is_visible="true"
       offset_points="2,0.13229166"
       sort_points="true"
       interpolator_type="CubicBezierJohan"
       interpolator_beta="0.2"
       start_linecap_type="zerowidth"
       linejoin_type="extrp_arc"
       miter_limit="4"
       end_linecap_type="zerowidth" />
    <marker
       inkscape:stockid="Arrow1Lend"
       orient="auto"
       refY="0"
       refX="0"
       id="marker6645-6"
       style="overflow:visible"
       inkscape:isstock="true">
      <path
         inkscape:connector-curvature="0"
         id="path6643-0"
         d="M 0,0 5,-5 -12.5,0 5,5 Z"
         style="fill:#fc0000;fill-opacity:1;fill-rule:evenodd;stroke:#fc0000;stroke-width:1.00000003pt;stroke-opacity:1"
         transform="matrix(-0.8,0,0,-0.8,-10,0)" />
    </marker>
    <marker
       inkscape:stockid="Arrow1Lend"
       orient="auto"
       refY="0"
       refX="0"
       id="marker6645-0"
       style="overflow:visible"
       inkscape:isstock="true">
      <path
         inkscape:connector-curvature="0"
         id="path6643-08"
         d="M 0,0 5,-5 -12.5,0 5,5 Z"
         style="fill:#000000;fill-opacity:1;fill-rule:evenodd;stroke:#000000;stroke-width:1.00000003pt;stroke-opacity:1"
         transform="matrix(-0.8,0,0,-0.8,-10,0)" />
    </marker>
  </defs>
  <sodipodi:namedview
     id="base"
     pagecolor="#ffffff"
     bordercolor="#666666"
     borderopacity="1.0"
     inkscape:pageopacity="0.0"
     inkscape:pageshadow="2"
     inkscape:zoom="0.49497475"
     inkscape:cx="785.34934"
     inkscape:cy="668.35391"
     inkscape:document-units="mm"
     inkscape:current-layer="layer1"
     showgrid="false"
     inkscape:window-width="1680"
     inkscape:window-height="988"
     inkscape:window-x="-8"
     inkscape:window-y="-8"
     inkscape:window-maximized="1"
     inkscape:snap-midpoints="true" />
  <metadata
     id="metadata5">
    <rdf:RDF>
      <cc:Work
         rdf:about="">
        <dc:format>image/svg+xml</dc:format>
        <dc:type
           rdf:resource="http://purl.org/dc/dcmitype/StillImage" />
        <dc:title></dc:title>
      </cc:Work>
    </rdf:RDF>
  </metadata>
  <g
     inkscape:label="Layer 1"
     inkscape:groupmode="layer"
     id="layer1"
     transform="translate(0,123)">
    <g
       id="g4560"
       transform="translate(-12.095238,-142.49702)">
      <ellipse
         ry="11.22532"
         rx="27.528765"
         cy="42.55941"
         cx="56.92841"
         id="path4482"
         style="fill:none;fill-opacity:1;stroke:#000000;stroke-width:1;stroke-linejoin:round;stroke-miterlimit:4;stroke-dasharray:none;stroke-dashoffset:0;stroke-opacity:1" />
      <text
         id="text4492"
         y="45.604187"
         x="56.572876"
         style="font-style:normal;font-weight:normal;font-size:8.46666622px;line-height:1.25;font-family:sans-serif;text-align:center;letter-spacing:0px;word-spacing:0px;text-anchor:middle;fill:#000000;fill-opacity:1;stroke:none;stroke-width:0.26458332"
         xml:space="preserve"><tspan
           style="text-align:center;text-anchor:middle;stroke-width:0.26458332"
           y="45.604187"
           x="56.572876"
           id="tspan4490"
           sodipodi:role="line">read</tspan></text>
    </g>
    <g
       id="g4555"
       transform="translate(-11.339286,-137.96131)">
      <rect
         y="71.959061"
         x="21.916101"
         height="18.708866"
         width="74.835464"
         id="rect4486"
         style="fill:none;fill-opacity:1;stroke:#000000;stroke-width:1;stroke-linejoin:round;stroke-miterlimit:4;stroke-dasharray:none;stroke-dashoffset:0;stroke-opacity:1" />
      <text
         id="text4500"
         y="84.465759"
         x="58.978302"
         style="font-style:normal;font-weight:normal;font-size:8.46666622px;line-height:1.25;font-family:sans-serif;text-align:center;letter-spacing:0px;word-spacing:0px;text-anchor:middle;fill:#000000;fill-opacity:1;stroke:none;stroke-width:0.26458332"
         xml:space="preserve"><tspan
           style="text-align:center;text-anchor:middle;stroke-width:0.26458332"
           y="84.465759"
           x="58.978302"
           id="tspan4498"
           sodipodi:role="line">wait idle</tspan></text>
    </g>
    <g
       id="g4545"
       transform="translate(2.127202,-49.142905)">
      <text
         id="text4508"
         y="142.5182"
         x="48.516174"
         style="font-style:normal;font-weight:normal;font-size:8.46666622px;line-height:1.25;font-family:sans-serif;text-align:center;letter-spacing:0px;word-spacing:0px;text-anchor:middle;fill:#000000;fill-opacity:1;stroke:none;stroke-width:0.26458332"
         xml:space="preserve"><tspan
           style="text-align:center;text-anchor:middle;stroke-width:0.26458332"
           y="142.5182"
           x="48.516174"
           id="tspan4506"
           sodipodi:role="line">RxTx</tspan></text>
      <rect
         y="133.29315"
         x="13.261611"
         height="12.294394"
         width="72.162773"
         id="rect4518"
         style="fill:none;fill-opacity:1;stroke:#000000;stroke-width:1;stroke-linejoin:round;stroke-miterlimit:4;stroke-dasharray:none;stroke-dashoffset:0;stroke-opacity:1" />
    </g>
    <g
       id="g4540"
       transform="translate(-3.1644609,-37.80362)">
      <text
         id="text4512"
         y="158.72765"
         x="55.153847"
         style="font-style:normal;font-weight:normal;font-size:8.46666622px;line-height:1.25;font-family:sans-serif;text-align:center;letter-spacing:0px;word-spacing:0px;text-anchor:middle;fill:#000000;fill-opacity:1;stroke:none;stroke-width:0.26458332"
         xml:space="preserve"><tspan
           style="text-align:center;text-anchor:middle;stroke-width:0.26458332"
           y="158.72765"
           x="55.153847"
           id="tspan4510"
           sodipodi:role="line">enable</tspan><tspan
           id="tspan4514"
           style="text-align:center;text-anchor:middle;stroke-width:0.26458332"
           y="169.31097"
           x="55.153847"
           sodipodi:role="line">interrupt</tspan></text>
      <rect
         y="150.32225"
         x="19.777945"
         height="22.664692"
         width="71.628235"
         id="rect4520"
         style="fill:none;fill-opacity:1;stroke:#000000;stroke-width:1;stroke-linejoin:round;stroke-miterlimit:4;stroke-dasharray:none;stroke-dashoffset:0;stroke-opacity:1" />
    </g>
    <g
       id="g4614"
       transform="translate(-15.206151,-47.286921)">
      <text
         id="text4569"
         y="71.820976"
         x="208.854"
         style="font-style:normal;font-weight:normal;font-size:8.46666622px;line-height:1.25;font-family:sans-serif;letter-spacing:0px;word-spacing:0px;fill:#000000;fill-opacity:1;stroke:none;stroke-width:0.26458332"
         xml:space="preserve"><tspan
           style="stroke-width:0.26458332"
           y="71.820976"
           x="208.854"
           id="tspan4567"
           sodipodi:role="line">ring-buffer</tspan></text>
      <rect
         y="61.142853"
         x="193.52382"
         height="16.630951"
         width="77.10714"
         id="rect4571"
         style="fill:none;fill-opacity:1;stroke:#000000;stroke-width:1;stroke-linejoin:round;stroke-miterlimit:4;stroke-dasharray:none;stroke-dashoffset:0;stroke-opacity:1" />
    </g>
    <g
       id="g4619"
       transform="translate(-68.877174,-17.854911)">
      <text
         id="text4575"
         y="118.64927"
         x="241.62422"
         style="font-style:normal;font-weight:normal;font-size:8.46666622px;line-height:1.25;font-family:sans-serif;text-align:center;letter-spacing:0px;word-spacing:0px;text-anchor:middle;fill:#000000;fill-opacity:1;stroke:none;stroke-width:0.26458332"
         xml:space="preserve"><tspan
           style="text-align:center;text-anchor:middle;stroke-width:0.26458332"
           y="118.64927"
           x="241.62422"
           id="tspan4573"
           sodipodi:role="line">Tx FIFO</tspan></text>
      <rect
         y="109.5238"
         x="217.71428"
         height="12.095239"
         width="91.470238"
         id="rect4599"
         style="fill:none;fill-opacity:1;stroke:#000000;stroke-width:1;stroke-linejoin:round;stroke-miterlimit:4;stroke-dasharray:none;stroke-dashoffset:0;stroke-opacity:1" />
    </g>
    <g
       id="g4624"
       transform="translate(-16.576275,40.543428)">
      <text
         id="text4583"
         y="145.11528"
         x="152.97079"
         style="font-style:normal;font-weight:normal;font-size:8.46666622px;line-height:1.25;font-family:sans-serif;text-align:center;letter-spacing:0px;word-spacing:0px;text-anchor:middle;fill:#000000;fill-opacity:1;stroke:none;stroke-width:0.26458332"
         xml:space="preserve"><tspan
           style="stroke-width:0.26458332"
           y="145.11528"
           x="152.97079"
           id="tspan4581"
           sodipodi:role="line">IRQ</tspan></text>
      <rect
         y="133.71428"
         x="136.07143"
         height="18.142857"
         width="34.017857"
         id="rect4601"
         style="fill:none;fill-opacity:1;stroke:#000000;stroke-width:1;stroke-linejoin:round;stroke-miterlimit:4;stroke-dasharray:none;stroke-dashoffset:0;stroke-opacity:1" />
    </g>
    <g
       id="g4645"
       transform="translate(58.799292,12.828937)">
      <text
         id="text4597"
         y="226.79329"
         x="181.29836"
         style="font-style:normal;font-weight:normal;font-size:8.46666622px;line-height:1.25;font-family:sans-serif;text-align:center;letter-spacing:0px;word-spacing:0px;text-anchor:middle;fill:#000000;fill-opacity:1;stroke:none;stroke-width:0.26458332"
         xml:space="preserve"><tspan
           style="stroke-width:0.26458332"
           y="226.79329"
           x="181.29836"
           id="tspan4595"
           sodipodi:role="line">enable interrupt</tspan></text>
      <rect
         y="217.625"
         x="139.09525"
         height="13.607142"
         width="84.666664"
         id="rect4603"
         style="fill:none;fill-opacity:1;stroke:#000000;stroke-width:1;stroke-linejoin:round;stroke-miterlimit:4;stroke-dasharray:none;stroke-dashoffset:0;stroke-opacity:1" />
    </g>
    <g
       id="g4635"
       transform="translate(-29.934187,4.2763122)">
      <text
         id="text4579"
         y="181.20433"
         x="263.63248"
         style="font-style:normal;font-weight:normal;font-size:8.46666622px;line-height:1.25;font-family:sans-serif;text-align:center;letter-spacing:0px;word-spacing:0px;text-anchor:middle;fill:#000000;fill-opacity:1;stroke:none;stroke-width:0.26458332"
         xml:space="preserve"><tspan
           style="stroke-width:0.26458332"
           y="181.20433"
           x="263.63248"
           id="tspan4577"
           sodipodi:role="line">RxTx</tspan></text>
      <rect
         y="169.24405"
         x="245.68451"
         height="17.764879"
         width="36.474705"
         id="rect4605"
         style="fill:none;fill-opacity:1;stroke:#000000;stroke-width:1;stroke-linejoin:round;stroke-miterlimit:4;stroke-dasharray:none;stroke-dashoffset:0;stroke-opacity:1" />
    </g>
    <g
       id="g4630"
       transform="translate(30.619882,-2.726414)">
      <text
         id="text4587"
         y="148.26872"
         x="202.98384"
         style="font-style:normal;font-weight:normal;font-size:8.46666622px;line-height:1.25;font-family:sans-serif;text-align:center;letter-spacing:0px;word-spacing:0px;text-anchor:middle;fill:#000000;fill-opacity:1;stroke:none;stroke-width:0.26458332"
         xml:space="preserve"><tspan
           style="stroke-width:0.26458332"
           y="148.26872"
           x="202.98384"
           id="tspan4585"
           sodipodi:role="line">disable</tspan><tspan
           id="tspan4589"
           style="stroke-width:0.26458332"
           y="158.85205"
           x="202.98384"
           sodipodi:role="line">interrupt</tspan></text>
      <rect
         y="138.43898"
         x="176.70386"
         height="25.513399"
         width="53.105663"
         id="rect4607"
         style="fill:none;fill-opacity:1;stroke:#000000;stroke-width:1;stroke-linejoin:round;stroke-miterlimit:4;stroke-dasharray:none;stroke-dashoffset:0;stroke-opacity:1" />
    </g>
    <g
       id="g4640"
       transform="translate(45.435822,13.898015)">
      <text
         id="text4593"
         y="199.44051"
         x="190.62608"
         style="font-style:normal;font-weight:normal;font-size:8.46666622px;line-height:1.25;font-family:sans-serif;text-align:center;letter-spacing:0px;word-spacing:0px;text-anchor:middle;fill:#000000;fill-opacity:1;stroke:none;stroke-width:0.26458332"
         xml:space="preserve"><tspan
           style="stroke-width:0.26458332"
           y="199.44051"
           x="190.62608"
           id="tspan4591"
           sodipodi:role="line">more to Rx?</tspan></text>
      <ellipse
         ry="7.5595236"
         rx="41.577381"
         cy="197.21428"
         cx="190.5"
         id="path4609"
         style="fill:none;fill-opacity:1;stroke:#000000;stroke-width:1;stroke-linejoin:round;stroke-miterlimit:4;stroke-dasharray:none;stroke-dashoffset:0;stroke-opacity:1" />
    </g>
    <g
       id="g4661"
       transform="translate(-24.588797,-5.3453905)">
      <text
         id="text4651"
         y="267.26758"
         x="196.60081"
         style="font-style:normal;font-weight:normal;font-size:8.46666622px;line-height:1.25;font-family:sans-serif;text-align:center;letter-spacing:0px;word-spacing:0px;text-anchor:middle;fill:#000000;fill-opacity:1;stroke:none;stroke-width:0.26458332"
         xml:space="preserve"><tspan
           style="stroke-width:0.26458332"
           y="267.26758"
           x="196.60081"
           id="tspan4649"
           sodipodi:role="line">exit</tspan><tspan
           id="tspan4653"
           style="stroke-width:0.26458332"
           y="277.85092"
           x="196.60081"
           sodipodi:role="line">IRQ</tspan></text>
      <ellipse
         ry="12.828938"
         rx="15.501633"
         cy="270.27307"
         cx="196.71037"
         id="path4655"
         style="fill:none;fill-opacity:1;stroke:#000000;stroke-width:1;stroke-linejoin:round;stroke-miterlimit:4;stroke-dasharray:none;stroke-dashoffset:0;stroke-opacity:1" />
    </g>
    <path
       style="fill:none;stroke:#fc0000;stroke-width:0.5;stroke-linecap:butt;stroke-linejoin:miter;stroke-miterlimit:4;stroke-dasharray:none;stroke-opacity:1;marker-end:url(#marker5003)"
       d="m 233.87658,161.22596 0.11109,12.29439"
       id="path4993"
       inkscape:connector-curvature="0" />
    <path
       style="fill:none;stroke:#fc0000;stroke-width:0.5;stroke-linecap:butt;stroke-linejoin:miter;stroke-miterlimit:4;stroke-dasharray:none;stroke-opacity:1;marker-end:url(#marker5045)"
       d="m 233.98767,191.28523 1.30633,11.70709"
       id="path5035"
       inkscape:connector-curvature="0" />
    <path
       style="fill:none;stroke:#fc0000;stroke-width:0.5;stroke-linecap:butt;stroke-linejoin:miter;stroke-miterlimit:4;stroke-dasharray:none;stroke-opacity:1;marker-end:url(#marker5087)"
       d="m 237.37286,218.67834 2.85501,11.77559"
       id="path5083"
       inkscape:connector-curvature="0" />
    <path
       style="fill:none;stroke:#fc0000;stroke-width:0.5;stroke-linecap:butt;stroke-linejoin:miter;stroke-miterlimit:4;stroke-dasharray:none;stroke-opacity:1;marker-end:url(#marker5141)"
       d="M 198.4413,214.89857 C 175.95173,221.51316 171.605,250.9953 171.605,250.9953"
       id="path5131"
       inkscape:connector-curvature="0" />
    <path
       style="fill:none;stroke:#fc0000;stroke-width:0.5;stroke-linecap:butt;stroke-linejoin:miter;stroke-miterlimit:4;stroke-dasharray:none;stroke-opacity:1;marker-end:url(#marker5195)"
       d="m 233.5931,244.5697 c -0.18899,14.17412 -33.26191,22.30061 -46.30208,21.54464"
       id="path5191"
       inkscape:connector-curvature="0" />
    <path
       style="fill:none;stroke:#fc0000;stroke-width:0.5;stroke-linecap:butt;stroke-linejoin:miter;stroke-miterlimit:4;stroke-dasharray:none;stroke-opacity:1;marker-end:url(#marker5261)"
       d="m 46.169517,-88.712294 1.82503,22.710044"
       id="path5251"
       inkscape:connector-curvature="0" />
    <path
       style="fill:none;stroke:#fc0000;stroke-width:0.5;stroke-linecap:butt;stroke-linejoin:miter;stroke-miterlimit:4;stroke-dasharray:none;stroke-opacity:1;marker-end:url(#marker5411)"
       d="m 51.450226,62.571207 0.01998,21.57904"
       id="path5401"
       inkscape:connector-curvature="0" />
    <path
       style="fill:none;stroke:#fc0000;stroke-width:0.5;stroke-linecap:butt;stroke-linejoin:miter;stroke-miterlimit:4;stroke-dasharray:none;stroke-opacity:1;marker-end:url(#marker5495)"
       d="m 51.470206,96.444632 0.957398,16.073978"
       id="path5485"
       inkscape:connector-curvature="0" />
    <path
       style="fill:none;stroke:#000000;stroke-width:0.5;stroke-linecap:butt;stroke-linejoin:miter;stroke-miterlimit:4;stroke-dasharray:4,4;stroke-dashoffset:0;stroke-opacity:1;marker-end:url(#marker5783)"
       d="m 52.427602,135.18332 c -14.378832,35.53339 -5.120903,38.60542 21.873327,37.26907 26.994221,-1.33634 45.194221,10.87674 45.194221,10.87674"
       id="path5773"
       inkscape:connector-curvature="0"
       sodipodi:nodetypes="csc" />
    <path
       style="fill:none;stroke:#000000;stroke-width:0.5;stroke-linecap:butt;stroke-linejoin:miter;stroke-miterlimit:4;stroke-dasharray:4,4;stroke-dashoffset:0;stroke-opacity:1;marker-end:url(#marker5897)"
       d="m 194.57222,103.76413 c -0.26728,21.38156 -34.21051,28.59783 -43.83221,41.1595 -9.6217,12.56167 -14.23594,29.33407 -14.23594,29.33407"
       id="path5887"
       inkscape:connector-curvature="0" />
    <text
       xml:space="preserve"
       style="font-style:normal;font-weight:normal;font-size:8.46666622px;line-height:1.25;font-family:sans-serif;text-align:center;letter-spacing:0px;word-spacing:0px;text-anchor:middle;fill:#000000;fill-opacity:1;stroke:none;stroke-width:0.26458332"
       x="66.408669"
       y="172.05264"
       id="text6263"><tspan
         sodipodi:role="line"
         id="tspan6261"
         x="66.408669"
         y="172.05264"
         style="stroke-width:0.26458332">start</tspan></text>
    <text
       xml:space="preserve"
       style="font-style:normal;font-weight:normal;font-size:8.46666622px;line-height:1.25;font-family:sans-serif;text-align:center;letter-spacing:0px;word-spacing:0px;text-anchor:middle;fill:#000000;fill-opacity:1;stroke:none;stroke-width:0.26458332"
       x="158.37584"
       y="137.41347"
       id="text6267"><tspan
         sodipodi:role="line"
         id="tspan6265"
         x="158.37584"
         y="137.41347"
         style="stroke-width:0.26458332">when half-empty</tspan></text>
    <text
       xml:space="preserve"
       style="font-style:normal;font-weight:normal;font-size:8.46666622px;line-height:1.25;font-family:sans-serif;text-align:center;letter-spacing:0px;word-spacing:0px;text-anchor:middle;fill:#000000;fill-opacity:1;stroke:none;stroke-width:0.26458332"
       x="238.80037"
       y="224.56613"
       id="text6279"><tspan
         sodipodi:role="line"
         id="tspan6277"
         x="238.80037"
         y="224.56613"
         style="stroke-width:0.26458332">yes</tspan></text>
    <text
       xml:space="preserve"
       style="font-style:normal;font-weight:normal;font-size:8.46666622px;line-height:1.25;font-family:sans-serif;text-align:center;letter-spacing:0px;word-spacing:0px;text-anchor:middle;fill:#000000;fill-opacity:1;stroke:none;stroke-width:0.26458332"
       x="180.67644"
       y="226.23787"
       id="text6283"><tspan
         sodipodi:role="line"
         id="tspan6281"
         x="180.67644"
         y="226.23787"
         style="stroke-width:0.26458332">no</tspan></text>
    <text
       xml:space="preserve"
       style="font-style:normal;font-weight:normal;font-size:8.46666622px;line-height:1.25;font-family:sans-serif;text-align:center;letter-spacing:0px;word-spacing:0px;text-anchor:middle;fill:#000000;fill-opacity:1;stroke:none;stroke-width:0.26458332"
       x="83.914536"
       y="249.29439"
       id="text6287"><tspan
         sodipodi:role="line"
         id="tspan6285"
         x="83.914536"
         y="249.29439"
         style="stroke-width:0.26458332">at this point,</tspan><tspan
         sodipodi:role="line"
         x="83.914536"
         y="259.87772"
         style="stroke-width:0.26458332"
         id="tspan6289">there's still time to pass</tspan><tspan
         sodipodi:role="line"
         x="83.914536"
         y="270.46103"
         style="stroke-width:0.26458332"
         id="tspan6291">until all bytes are</tspan><tspan
         sodipodi:role="line"
         x="83.914536"
         y="281.04437"
         style="stroke-width:0.26458332"
         id="tspan6293">received</tspan></text>
    <path
       style="fill:none;stroke:#000000;stroke-width:0.26458332px;stroke-linecap:butt;stroke-linejoin:miter;stroke-opacity:1;marker-end:url(#marker6299)"
       d="m 111.12881,246.64857 c 30.99405,-0.37797 45.73512,9.44941 45.73512,9.44941"
       id="path6295"
       inkscape:connector-curvature="0" />
    <rect
       style="fill:none;fill-opacity:1;stroke:#000000;stroke-width:0.26458332;stroke-linejoin:round;stroke-miterlimit:4;stroke-dasharray:none;stroke-dashoffset:0;stroke-opacity:1"
       id="rect6427"
       width="288.4397"
       height="411.84445"
       x="4.2763124"
       y="-119.65532" />
    <path
       style="fill:none;stroke:#000000;stroke-width:0.26458332px;stroke-linecap:butt;stroke-linejoin:miter;stroke-opacity:1"
       d="m 191.28756,145.79656 c -38.40939,0.46342 -0.41584,37.6662 -34.43369,37.6662 37.85198,-0.72049 -31.7358,44.51303 2.99127,57.91084"
       id="path6429"
       inkscape:connector-curvature="0"
       sodipodi:nodetypes="ccc" />
    <path
       style="fill:none;stroke:#00fa00;stroke-width:0.5;stroke-linecap:butt;stroke-linejoin:miter;stroke-miterlimit:4;stroke-dasharray:none;stroke-opacity:1;marker-end:url(#marker6645)"
       d="m 249.28166,-111.38658 h 36.2857"
       id="path6641"
       inkscape:connector-curvature="0" />
    <path
       style="fill:none;stroke:#fc0000;stroke-width:0.5;stroke-linecap:butt;stroke-linejoin:miter;stroke-miterlimit:4;stroke-dasharray:none;stroke-opacity:1;marker-end:url(#marker6645-6)"
       d="m 249.28166,-100.24073 h 36.2857"
       id="path6641-3"
       inkscape:connector-curvature="0" />
    <path
       style="fill:none;stroke:#000000;stroke-width:0.5;stroke-linecap:butt;stroke-linejoin:miter;stroke-miterlimit:4;stroke-dasharray:3, 3;stroke-dashoffset:0;stroke-opacity:1;marker-end:url(#marker6645-0)"
       d="m 249.28166,-89.094879 h 36.2857"
       id="path6641-1"
       inkscape:connector-curvature="0" />
    <text
       xml:space="preserve"
       style="font-style:normal;font-weight:normal;font-size:8.46666622px;line-height:1.25;font-family:sans-serif;text-align:center;letter-spacing:0px;word-spacing:0px;text-anchor:middle;fill:#000000;fill-opacity:1;stroke:none;stroke-width:0.26458332"
       x="214.94775"
       y="-108.21365"
       id="text7494"><tspan
         sodipodi:role="line"
         id="tspan7492"
         x="214.94775"
         y="-108.21365"
         style="stroke-width:0.26458332">data flow</tspan></text>
    <text
       xml:space="preserve"
       style="font-style:normal;font-weight:normal;font-size:8.46666622px;line-height:1.25;font-family:sans-serif;text-align:center;letter-spacing:0px;word-spacing:0px;text-anchor:middle;fill:#000000;fill-opacity:1;stroke:none;stroke-width:0.26458332"
       x="203.84354"
       y="-97.067802"
       id="text7498"><tspan
         sodipodi:role="line"
         id="tspan7496"
         x="203.84354"
         y="-97.067802"
         style="stroke-width:0.26458332">execution flow</tspan></text>
    <text
       xml:space="preserve"
       style="font-style:normal;font-weight:normal;font-size:8.46666622px;line-height:1.25;font-family:sans-serif;text-align:center;letter-spacing:0px;word-spacing:0px;text-anchor:middle;fill:#000000;fill-opacity:1;stroke:none;stroke-width:0.26458332"
       x="201.23492"
       y="-86.178261"
       id="text7502"><tspan
         sodipodi:role="line"
         id="tspan7500"
         x="201.23492"
         y="-86.178261"
         style="stroke-width:0.26458332">events / control</tspan></text>
    <g
       id="g4685"
       transform="translate(12.095238,-7.9375002)">
      <text
         id="text4648"
         y="-17.273016"
         x="34.53521"
         style="font-style:normal;font-weight:normal;font-size:8.46666622px;line-height:1.25;font-family:sans-serif;text-align:center;letter-spacing:0px;word-spacing:0px;text-anchor:middle;fill:#000000;fill-opacity:1;stroke:none;stroke-width:0.26458332"
         xml:space="preserve"><tspan
           style="stroke-width:0.26458332"
           y="-17.273016"
           x="34.53521"
           id="tspan4646"
           sodipodi:role="line">wait SSP</tspan><tspan
           id="tspan4650"
           style="stroke-width:0.26458332"
           y="-6.6896834"
           x="34.53521"
           sodipodi:role="line">not busy</tspan></text>
      <ellipse
         ry="14.930058"
         rx="28.537201"
         cy="-14.263381"
         cx="34.58482"
         id="path4652"
         style="fill:none;fill-opacity:1;stroke:#000000;stroke-width:1;stroke-linejoin:round;stroke-miterlimit:4;stroke-dasharray:none;stroke-dashoffset:0;stroke-opacity:1" />
    </g>
    <g
       id="g4703"
       transform="translate(-70.551636,45.284216)">
      <text
         id="text4693"
         y="0.66666901"
         x="121.70834"
         style="font-style:normal;font-weight:normal;font-size:8.46666622px;line-height:1.25;font-family:sans-serif;text-align:center;letter-spacing:0px;word-spacing:0px;text-anchor:middle;fill:#000000;fill-opacity:1;stroke:none;stroke-width:0.26458332"
         xml:space="preserve"><tspan
           style="stroke-width:0.26458332"
           y="0.66666901"
           x="121.70834"
           id="tspan4691"
           sodipodi:role="line">receive count</tspan><tspan
           id="tspan4695"
           style="stroke-width:0.26458332"
           y="11.250002"
           x="121.70834"
           sodipodi:role="line">= data count</tspan></text>
      <rect
         y="-11.439198"
         x="80.046509"
         height="28.726189"
         width="83.910713"
         id="rect4697"
         style="fill:none;fill-opacity:1;stroke:#000000;stroke-width:1;stroke-linejoin:round;stroke-miterlimit:4;stroke-dasharray:none;stroke-dashoffset:0;stroke-opacity:1" />
    </g>
    <g
       id="g4710"
       transform="translate(11.22532,-2.6189716)">
      <text
         id="text4689"
         y="17.916559"
         x="36.148403"
         style="font-style:normal;font-weight:normal;font-size:8.46666622px;line-height:1.25;font-family:sans-serif;text-align:center;letter-spacing:0px;word-spacing:0px;text-anchor:middle;fill:#000000;fill-opacity:1;stroke:none;stroke-width:0.26458332"
         xml:space="preserve"><tspan
           style="stroke-width:0.26458332"
           y="17.916559"
           x="36.148403"
           id="tspan4687"
           sodipodi:role="line">was Tx?</tspan></text>
      <ellipse
         ry="8.5044641"
         rx="25.135416"
         cy="14.840777"
         cx="36.096725"
         id="path4705"
         style="fill:none;fill-opacity:1;stroke:#000000;stroke-width:1;stroke-linejoin:round;stroke-miterlimit:4;stroke-dasharray:none;stroke-dashoffset:0;stroke-opacity:1" />
    </g>
    <path
       style="fill:none;stroke:#ff0000;stroke-width:0.5;stroke-linecap:butt;stroke-linejoin:miter;stroke-opacity:1;stroke-miterlimit:4;stroke-dasharray:none;marker-end:url(#marker4989)"
       d="m 47.994546,-47.293388 -0.955109,9.137409"
       id="path4712"
       inkscape:connector-curvature="0" />
    <path
       style="fill:none;stroke:#ff0000;stroke-width:0.5;stroke-linecap:butt;stroke-linejoin:miter;stroke-opacity:1;stroke-miterlimit:4;stroke-dasharray:none;marker-end:url(#marker4981)"
       d="M 46.504896,-7.954522 V 3.8053365"
       id="path4714"
       inkscape:connector-curvature="0" />
    <path
       style="fill:none;stroke:#ff0000;stroke-width:0.5;stroke-linecap:butt;stroke-linejoin:miter;stroke-opacity:1;stroke-miterlimit:4;stroke-dasharray:none;marker-end:url(#marker4985)"
       d="m 48.910324,21.445126 2.539902,12.399891"
       id="path4716"
       inkscape:connector-curvature="0" />
    <text
       xml:space="preserve"
       style="font-style:normal;font-weight:normal;font-size:8.46666622px;line-height:1.25;font-family:sans-serif;text-align:center;letter-spacing:0px;word-spacing:0px;text-anchor:middle;fill:#000000;fill-opacity:1;stroke:none;stroke-width:0.26458332"
       x="50.180275"
       y="27.645067"
       id="text4993"><tspan
         sodipodi:role="line"
         id="tspan4991"
         x="50.180275"
         y="27.645067"
         style="stroke-width:0.26458332">no</tspan></text>
    <g
       id="g4619-0"
       transform="translate(-68.877174,-35.770986)">
      <text
         id="text4575-7"
         y="118.64927"
         x="241.62422"
         style="font-style:normal;font-weight:normal;font-size:8.46666622px;line-height:1.25;font-family:sans-serif;text-align:center;letter-spacing:0px;word-spacing:0px;text-anchor:middle;fill:#000000;fill-opacity:1;stroke:none;stroke-width:0.26458332"
         xml:space="preserve"><tspan
           style="text-align:center;text-anchor:middle;stroke-width:0.26458332"
           y="118.64927"
           x="241.62422"
           id="tspan4573-4"
           sodipodi:role="line">Rx FIFO</tspan></text>
      <rect
         y="109.5238"
         x="217.71428"
         height="12.095239"
         width="91.470238"
         id="rect4599-6"
         style="fill:none;fill-opacity:1;stroke:#000000;stroke-width:1;stroke-linejoin:round;stroke-miterlimit:4;stroke-dasharray:none;stroke-dashoffset:0;stroke-opacity:1" />
    </g>
    <g
       id="g5033"
       transform="translate(12.095238,-2.6458333)">
      <text
         id="text5021"
         y="8.677701"
         x="107.54545"
         style="font-style:normal;font-weight:normal;font-size:8.46666622px;line-height:1.25;font-family:sans-serif;text-align:center;letter-spacing:0px;word-spacing:0px;text-anchor:middle;fill:#000000;fill-opacity:1;stroke:none;stroke-width:0.26458332"
         xml:space="preserve"><tspan
           style="stroke-width:0.26458332"
           y="8.677701"
           x="107.54545"
           id="tspan5019"
           sodipodi:role="line">empty</tspan><tspan
           id="tspan5023"
           style="stroke-width:0.26458332"
           y="19.261034"
           x="107.54545"
           sodipodi:role="line">Rx FIFO</tspan></text>
      <rect
         y="-3.4910655"
         x="82.776787"
         height="29.104166"
         width="49.892857"
         id="rect5027"
         style="fill:none;fill-opacity:1;stroke:#000000;stroke-width:1;stroke-linejoin:round;stroke-miterlimit:4;stroke-dasharray:none;stroke-dashoffset:0;stroke-opacity:1" />
    </g>
    <path
       style="fill:none;stroke:#fa0000;stroke-width:0.5;stroke-linecap:butt;stroke-linejoin:miter;stroke-opacity:1;stroke-miterlimit:4;stroke-dasharray:none;marker-end:url(#marker5046)"
       d="M 70.303572,9.7381044 94.872023,8.4151824"
       id="path5036"
       inkscape:connector-curvature="0" />
    <path
       style="fill:none;stroke:#fa0000;stroke-width:0.5;stroke-linecap:butt;stroke-linejoin:miter;stroke-opacity:1;stroke-miterlimit:4;stroke-dasharray:none;marker-end:url(#Arrow1Lend)"
       d="M 119.81845,22.967266 93.405578,48.20811"
       id="path5038"
       inkscape:connector-curvature="0" />
    <path
       style="fill:none;stroke:#00ff00;stroke-width:0.5;stroke-linecap:butt;stroke-linejoin:miter;stroke-opacity:1;stroke-miterlimit:4;stroke-dasharray:none;marker-end:url(#marker5054)"
       d="M 194.57222,73.752816 C 194.03768,51.646583 203.65938,60.733745 212.212,51.112042 220.76463,41.49034 216.87123,30.48688 216.87123,30.48688"
       id="path5050"
       inkscape:connector-curvature="0" />
    <text
       xml:space="preserve"
       style="font-style:normal;font-weight:normal;font-size:8.46666622px;line-height:1.25;font-family:sans-serif;text-align:center;letter-spacing:0px;word-spacing:0px;text-anchor:middle;fill:#000000;fill-opacity:1;stroke:none;stroke-width:0.26458332"
       x="208.47023"
       y="54.853821"
       id="text5058"><tspan
         sodipodi:role="line"
         id="tspan5056"
         x="208.47023"
         y="54.853821"
         style="stroke-width:0.26458332">data</tspan></text>
    <path
       style="fill:none;stroke:#000000;stroke-width:0.5;stroke-linecap:butt;stroke-linejoin:miter;stroke-miterlimit:4;stroke-dasharray:3.00000008, 3.00000008;stroke-dashoffset:0;stroke-opacity:1;marker-end:url(#marker5070)"
       d="m 252.22502,191.28524 c 28.67526,5.28396 39.36603,-54.91422 33.75336,-90.1938 -5.07392,-31.893208 -24.32152,-50.781205 -63.0756,-50.513936"
       id="path5066"
       inkscape:connector-curvature="0"
       sodipodi:nodetypes="csc" />
    <path
       style="fill:none;stroke:#000000;stroke-width:0.5;stroke-linecap:butt;stroke-linejoin:miter;stroke-opacity:1;stroke-miterlimit:4;stroke-dasharray:3,3;stroke-dashoffset:0;marker-end:url(#marker5078)"
       d="m 87.551587,90.297439 c 27.908843,-0.164047 29.512463,-27.425538 54.101263,-36.5127 24.58879,-9.087165 50.24667,-3.741775 50.24667,-3.741775"
       id="path5072"
       inkscape:connector-curvature="0" />
    <path
       style="fill:none;stroke:#000000;stroke-width:0.5;stroke-linecap:butt;stroke-linejoin:miter;stroke-opacity:1;stroke-miterlimit:4;stroke-dasharray:3,3;stroke-dashoffset:0;marker-end:url(#marker5082)"
       d="m 87.551587,96.444631 c 28.443383,-1.500386 23.632533,10.259469 32.719703,10.259469 9.08716,0 28.56581,-8.987591 28.56581,-8.987591"
       id="path5074"
       inkscape:connector-curvature="0" />
    <path
       style="fill:none;stroke:#000000;stroke-width:0.5;stroke-linecap:butt;stroke-linejoin:miter;stroke-opacity:1;stroke-miterlimit:4;stroke-dasharray:3,3;stroke-dashoffset:0;marker-end:url(#marker5088)"
       d="m 252.22502,182.4028 c 12.3718,-2.46685 23.59712,-9.68312 24.6662,-29.46107 1.06907,-19.77794 3.20725,-45.43582 -8.55261,-51.04848 -11.75987,-5.612658 -28.03128,-4.176741 -28.03128,-4.176741"
       id="path5084"
       inkscape:connector-curvature="0" />
    <text
       xml:space="preserve"
       style="font-style:normal;font-weight:normal;font-size:8.46666622px;line-height:1.25;font-family:sans-serif;text-align:center;letter-spacing:0px;word-spacing:0px;text-anchor:middle;fill:#000000;fill-opacity:1;stroke:none;stroke-width:0.26458332"
       x="129.89299"
       y="48.973892"
       id="text5092"><tspan
         sodipodi:role="line"
         id="tspan5090"
         x="129.89299"
         y="48.973892"
         style="stroke-width:0.26458332">read</tspan><tspan
         sodipodi:role="line"
         x="129.89299"
         y="59.557224"
         style="stroke-width:0.26458332"
         id="tspan5094">as much</tspan><tspan
         sodipodi:role="line"
         x="129.89299"
         y="70.140564"
         style="stroke-width:0.26458332"
         id="tspan5096">as possible</tspan></text>
    <text
       xml:space="preserve"
       style="font-style:normal;font-weight:normal;font-size:8.46666622px;line-height:1.25;font-family:sans-serif;text-align:center;letter-spacing:0px;word-spacing:0px;text-anchor:middle;fill:#000000;fill-opacity:1;stroke:none;stroke-width:0.26458332"
       x="265.65762"
       y="50.911499"
       id="text5092-9"><tspan
         sodipodi:role="line"
         id="tspan5090-3"
         x="265.65762"
         y="50.911499"
         style="stroke-width:0.26458332">read</tspan><tspan
         sodipodi:role="line"
         x="265.65762"
         y="61.494831"
         style="stroke-width:0.26458332"
         id="tspan5094-9">as much</tspan><tspan
         sodipodi:role="line"
         x="265.65762"
         y="72.078171"
         style="stroke-width:0.26458332"
         id="tspan5096-3">as possible</tspan></text>
    <text
       xml:space="preserve"
       style="font-style:normal;font-weight:normal;font-size:8.46666622px;line-height:1.25;font-family:sans-serif;text-align:center;letter-spacing:0px;word-spacing:0px;text-anchor:middle;fill:#000000;fill-opacity:1;stroke:none;stroke-width:0.26458332"
       x="116.52951"
       y="99.220566"
       id="text5124"><tspan
         sodipodi:role="line"
         id="tspan5122"
         x="116.52951"
         y="99.220566"
         style="stroke-width:0.26458332">push a</tspan><tspan
         sodipodi:role="line"
         x="116.52951"
         y="109.8039"
         style="stroke-width:0.26458332"
         id="tspan5151"># of</tspan><tspan
         sodipodi:role="line"
         x="116.52951"
         y="120.38723"
         style="stroke-width:0.26458332"
         id="tspan5126">0xFF</tspan></text>
    <text
       xml:space="preserve"
       style="font-style:normal;font-weight:normal;font-size:8.46666622px;line-height:1.25;font-family:sans-serif;text-align:center;letter-spacing:0px;word-spacing:0px;text-anchor:middle;fill:#000000;fill-opacity:1;stroke:none;stroke-width:0.26458332"
       x="265.14706"
       y="104.45173"
       id="text5124-5"><tspan
         sodipodi:role="line"
         id="tspan5122-1"
         x="265.14706"
         y="104.45173"
         style="stroke-width:0.26458332">push a</tspan><tspan
         sodipodi:role="line"
         x="265.14706"
         y="115.03506"
         style="stroke-width:0.26458332"
         id="tspan5149"># of</tspan><tspan
         sodipodi:role="line"
         x="265.14706"
         y="125.6184"
         style="stroke-width:0.26458332"
         id="tspan5126-0">0xFF</tspan></text>
  </g>
</svg>
